Display factR2 object data — factR-meta • factR2
…
## Returns metadata of features
features(factRsample)   # from activeSet
#> ℹ Set `show_more to TRUE to show more info`
#> # A tibble: 154 × 8
#>    transcript_id         gene_id        gene_name strand width novel cds   nmd  
#>    <chr>                 <chr>          <chr>     <fct>  <int> <chr> <chr> <chr>
#>  1 ENSMUST00000022746.12 ENSMUSG000000… Osmr      -       5491 no    no    no   
#>  2 ENSMUST00000175862.7  ENSMUSG000000… Osmr      -       2837 no    no    no   
#>  3 ENSMUST00000176554.1  ENSMUSG000000… Osmr      -        908 no    no    no   
#>  4 ENSMUST00000176826.1  ENSMUSG000000… Osmr      -       4028 no    no    no   
#>  5 ENSMUST00000177263.1  ENSMUSG000000… Osmr      -       6160 no    no    no   
#>  6 ENSMUST00000177478.1  ENSMUSG000000… Osmr      -       1727 no    no    no   
#>  7 MSTRG.14573.1         ENSMUSG000000… Osmr      *        877 yes   no    no   
#>  8 ENSMUST00000090461.11 ENSMUSG000000… Fyb       +       2678 no    no    no   
#>  9 ENSMUST00000159604.1  ENSMUSG000000… Fyb       +        771 no    no    no   
#> 10 ENSMUST00000159714.1  ENSMUSG000000… Fyb       +       2170 no    no    no   
#> # ℹ 144 more rows
…
## All outputs can be assigned to a variable and manipulated further using other functions:
ase(factRsample) %>% dplyr::filter(AStype == "CE")
#> ℹ Set `show_more to TRUE to show more info`
#> # A tibble: 37 × 7
#>    AS_id   gene_id               gene_name coord             AStype strand width
#>    <chr>   <chr>                 <chr>     <chr>             <fct>  <fct>  <int>
#>  1 AS00005 ENSMUSG00000064373.12 Selenop   chr15:3272755-32… CE     +         51
#>  2 AS00029 ENSMUSG00000022186.14 Oxct1     chr15:4059936-40… CE     +         61
#>  3 AS00030 ENSMUSG00000022186.14 Oxct1     chr15:4091168-40… CE     +        108
#>  4 AS00031 ENSMUSG00000022186.14 Oxct1     chr15:4092411-40… CE     +        115
#>  5 AS00033 ENSMUSG00000022186.14 Oxct1     chr15:4094015-40… CE     +         95
#>  6 AS00034 ENSMUSG00000022186.14 Oxct1     chr15:4096472-40… CE     +         49
#>  7 AS00035 ENSMUSG00000022186.14 Oxct1     chr15:4101127-41… CE     +         73
#>  8 AS00036 ENSMUSG00000022186.14 Oxct1     chr15:4101804-41… CE     +         76
#>  9 AS00037 ENSMUSG00000022186.14 Oxct1     chr15:4128834-41… CE     +         90
#> 10 AS00039 ENSMUSG00000022186.14 Oxct1     chr15:4142792-41… CE     +         81
#> # ℹ 27 more rows
…
