Expression/samples-related functions — factR-exp • factR2
…
## run correlation between gene expression and exon inclusion
factRObject <- testGeneCorr(factRObject)
#> Error in dplyr::select(., AS_id, gene_id, ASNMDtype): Can't subset columns that don't exist.
#> ✖ Column `ASNMDtype` doesn't exist.
ase(factRObject)
#> ℹ Set `show_more to TRUE to show more info`
#> # A tibble: 48,197 × 8
#>    AS_id   gene_id               gene_name coord       AStype strand width novel
#>    <chr>   <chr>                 <chr>     <chr>       <fct>  <fct>  <int> <chr>
#>  1 AS01129 ENSMUSG00000033813.16 Tcea1     chr1:49570… AD     +        231 yes  
#>  2 AS01642 ENSMUSG00000025907.15 Rb1cc1    chr1:62851… AD     +       1104 yes  
#>  3 AS01647 ENSMUSG00000025907.15 Rb1cc1    chr1:62929… AF     +        499 yes  
#>  4 AS01649 ENSMUSG00000025907.15 Rb1cc1    chr1:63043… RI     +        141 yes  
#>  5 AS01650 ENSMUSG00000025907.15 Rb1cc1    chr1:63152… RI     +        178 yes  
#>  6 AS01651 ENSMUSG00000025907.15 Rb1cc1    chr1:63155… RI     +         80 yes  
#>  7 AS01652 ENSMUSG00000025907.15 Rb1cc1    chr1:63198… RI     +         87 yes  
#>  8 AS01657 ENSMUSG00000025907.15 Rb1cc1    chr1:63313… AD     +        749 yes  
#>  9 AS01658 ENSMUSG00000025907.15 Rb1cc1    chr1:63331… RI     +         81 yes  
#> 10 AS01659 ENSMUSG00000025907.15 Rb1cc1    chr1:63334… AD     +        173 yes  
#> # ℹ 48,187 more rows
…
