Working with custom transcriptomes using factR2 • factR2
…
activeSet(fobj) <- "transcript"

The exact names of the “set” can be printed out using
listSets():

listSets(fobj)
#> [1] "gene"       "transcript" "AS"

The metadata associated with the current active “set” can be
displayed as a dataframe using the features() function:

features(fobj)
#> # A tibble: 115,055 × 8
#>    transcript_id              gene_id   gene_name strand width novel cds   nmd  
#>    <chr>                      <chr>     <chr>     <fct>  <int> <chr> <chr> <chr>
#>  1 transcript51190.chr3.nnic  ENSMUSG0… Gnai3     -       1333 yes   no    no   
#>  2 transcript62347.chr16.nnic ENSMUSG0… Cdc45     -       2279 yes   no    no   
#>  3 transcript62383.chr16.nnic ENSMUSG0… Cdc45     -        679 yes   no    no   
#>  4 transcript62392.chr16.nnic ENSMUSG0… Cdc45     -       2282 yes   no    no   
#>  5 transcript45445.chrX.nnic  ENSMUSG0… Scml2     +       1237 yes   no    no   
#>  6 transcript45454.chrX.nnic  ENSMUSG0… Scml2     +        677 yes   no    no   
#>  7 transcript45461.chrX.nnic  ENSMUSG0… Scml2     +        451 yes   no    no   
#>  8 transcript45463.chrX.nnic  ENSMUSG0… Scml2     +        669 yes   no    no   
#>  9 transcript45465.chrX.nnic  ENSMUSG0… Scml2     +        464 yes   no    no   
#> 10 transcript45467.chrX.nnic  ENSMUSG0… Scml2     +        425 yes   no    no   
#> # ℹ 115,045 more rows
…
The total number of NMD-sensitive transcripts can be queried as
such:

features(fobj) %>% 
  group_by(nmd) %>% 
  tally()
#> ℹ Set `show_more to TRUE to show more info`
#> # A tibble: 2 × 2
#>   nmd        n
#>   <chr>  <int>
#> 1 no    111665
#> 2 yes     3390

Now, plotTranscripts() will distinguish between CDS and
untranslated region (UTR) segments:

plotTranscripts(fobj, "U2af1", rescale_introns = T)

By default, the runfactR pipeline will compute the
sequence conservation scores of the entire exon. To determine the
conservation of intronic sequences flanking these alternative exons (50
base pairs on each side), users may rerun the getAScons()
function and the newly-computed scores will be reflected as a separate
column in the “AS” set metadata:

fobj <- getAScons(fobj, type = "flanks", padding = 50)
#> 🡆  Quantifiying conservation scores
#>     ℹ Getting phastCons35way.UCSC.mm39 database
#>     ℹ Quantifying `flanks` conservation scores with 50 padding
ase(fobj, show_more = TRUE)
#>           AS_id                     gene_id          gene_name
#> AS00001 AS00001 novel_gene_JH584304.1_72773               <NA>
#> AS00002 AS00002        ENSMUSG00000095041.8 ENSMUSG00000095041
#> AS00003 AS00003        ENSMUSG00000095041.8 ENSMUSG00000095041
#> AS00004 AS00004        ENSMUSG00000095041.8 ENSMUSG00000095041
#> AS00005 AS00005        ENSMUSG00000095041.8 ENSMUSG00000095041
#> AS00006 AS00006        ENSMUSG00000095041.8 ENSMUSG00000095041
#> AS00007 AS00007        ENSMUSG00000095041.8 ENSMUSG00000095041
#> AS00008 AS00008        ENSMUSG00000095041.8 ENSMUSG00000095041
#>                          coord AStype strand width novel ASNMDtype ASNMD.in.cds
#> AS00001 JH584304.1:51100-51324     AF      +   225   yes      <NA>           NA
#> AS00002 JH584304.1:57057-57151     AL      -    95   yes      <NA>           NA
#> AS00003 JH584304.1:58564-58692   <NA>      -   129   yes      <NA>           NA
#> AS00004 JH584304.1:58693-58835   <NA>      -   143   yes      <NA>           NA
#> AS00005 JH584304.1:58836-59092     AA      -   257   yes      <NA>           NA
#> AS00006 JH584304.1:59334-59480     AF      -   147   yes      <NA>           NA
#> AS00007 JH584304.1:59592-59773     CE      -   182   yes      <NA>           NA
#> AS00008 JH584304.1:60252-60266     CE      -    15   yes      <NA>           NA
#>         Cons.exon.pad0 Cons.flanks.pad50
#> AS00001             NA                NA
#> AS00002             NA                NA
#> AS00003             NA                NA
#> AS00004             NA                NA
#> AS00005             NA                NA
#> AS00006             NA                NA
#> AS00007             NA                NA
#> AS00008             NA                NA
#>  [ reached 'max' / getOption("max.print") -- omitted 20779 rows ]
…
